feedback,createdAt,createdBy,userEmail
Okay,"19-05-2020, 8:02 am",Shilka Edakkara,shilka@socialbeat.in
Okay,"19-05-2020, 9:09 am",Nandita Raman,nandita@socialbeat.in
Great,"19-05-2020, 9:27 am",Vikas chawla,vikas@socialbeat.in
Okay,"19-05-2020, 9:45 am",Vimal Michael,vimal@socialbeat.in
Great,"19-05-2020, 9:57 am",Aashik Indukuri,aashik.indukuri@socialbeat.in
Great,"19-05-2020, 10:07 am",Santhosh Venkatesh,santhosh.venkatesh@socialbeat.in
Great,"19-05-2020, 10:08 am",Naveen Kumar,naveenkumar@socialbeat.in
Great,"19-05-2020, 10:18 am",Sparjan Pati,sparjan.pati@socialbeat.in
Okay,"19-05-2020, 10:30 am",Nirupama Venkataraman,nirupama@socialbeat.in
Not Okay,"19-05-2020, 10:35 am",Arunima Singh,arunima@socialbeat.in
Great,"19-05-2020, 10:35 am",Arushi Gupta,arushi@socialbeat.in
Not Okay,"19-05-2020, 10:35 am",Deepsikha Agarwal,deepsikha@socialbeat.in
Great,"19-05-2020, 10:55 am",Reuben Alex,reuben.alex@socialbeat.in
Not Okay,"19-05-2020, 10:56 am",Vivek,vivek@socialbeat.in
Okay,"19-05-2020, 11:00 am",Yash Makhecha,yash.makhecha@socialbeat.in
Okay,"19-05-2020, 11:05 am",Siri K,siri@socialbeat.in
Okay,"19-05-2020, 11:06 am",Haridasan Shanmugam,haridasan@socialbeat.in
Okay,"19-05-2020, 11:06 am",Sharanya Venugopal,sharanya@socialbeat.in
Okay,"19-05-2020, 11:06 am",Jayanth Jonathan,jayanth@socialbeat.in
Okay,"19-05-2020, 11:06 am",Lalitha shukla,lalitha@socialbeat.in
Okay,"19-05-2020, 11:06 am",Ananyaa Desikan,ananyaa@socialbeat.in
Okay,"19-05-2020, 11:06 am",Pradeep Babu,pradeep@socialbeat.in
Okay,"19-05-2020, 11:07 am",Mukesh R,mukesh@socialbeat.in
Okay,"19-05-2020, 11:08 am",Shreya Nagesh,shreya@socialbeat.in
Great,"19-05-2020, 11:09 am",Roshni Chhabria,roshni@socialbeat.in
Not Okay,"19-05-2020, 11:15 am",Clinton D'silva,clinton.dsilva@socialbeat.in
Okay,"19-05-2020, 11:18 am",Panisa Shah,panisa@socialbeat.in
Okay,"19-05-2020, 11:20 am",Nevedha Pandurangan,nevedha@socialbeat.in
Okay,"19-05-2020, 11:28 am",Kyra de Sousa,kyra@socialbeat.in
Okay,"19-05-2020, 11:28 am",Sudarshan Kailash,sudarshan@socialbeat.in
Okay,"19-05-2020, 11:29 am",Meghana Chandani,meghana@socialbeat.in
Okay,"19-05-2020, 11:39 am",Divya Babu,divyababu@socialbeat.in
Not Okay,"19-05-2020, 12:01 pm",Deesha Seth,deesha.seth@socialbeat.in
Okay,"19-05-2020, 12:10 pm",Mubena Khaliq,mubena@socialbeat.in
Great,"19-05-2020, 12:21 pm",Vel Murugan,velmurugan@socialbeat.in
Okay,"19-05-2020, 12:47 pm",Gaurav Kadnurrao,gaurav@socialbeat.in
Not Okay,"19-05-2020, 1:23 pm",Preksha Bokaria,preksha.bokaria@socialbeat.in
Not Okay,"19-05-2020, 2:03 pm",Lavanya U,lavanya@socialbeat.in
Okay,"19-05-2020, 2:46 pm",Adithya Krishnan,adithya@socialbeat.in
Okay,"19-05-2020, 3:00 pm",Arvind Velayutham,arvindvelayutham@socialbeat.in
Okay,"19-05-2020, 3:08 pm",Mitsu Jain,mitsu@socialbeat.in
Great,"19-05-2020, 3:11 pm",Arju S Moon,arju@socialbeat.in
Okay,"19-05-2020, 3:25 pm",Preethi Shanmugam,preethi@socialbeat.in
Okay,"19-05-2020, 3:25 pm",Preethi Shanmugam,preethi@socialbeat.in
Okay,"19-05-2020, 3:43 pm",Mahesh kumar,mahesh@socialbeat.in
Okay,"19-05-2020, 4:04 pm",Antriksh Saxena,antriksh.s@socialbeat.in
Okay,"19-05-2020, 4:26 pm",Pranav Agarwal,pranav@socialbeat.in
Okay,"19-05-2020, 4:35 pm",Mirai Kandathil,mirai@socialbeat.in
Not Okay,"19-05-2020, 4:35 pm",Druhi Sethi,druhi@socialbeat.in
Not Okay,"19-05-2020, 4:35 pm",Pooja Suresh,pooja@socialbeat.in
Okay,"19-05-2020, 4:36 pm",Sathananthan s,sathananthan@socialbeat.in
Okay,"19-05-2020, 4:36 pm",Aishwarya Ashok,aishwarya.ashok@socialbeat.in
Okay,"19-05-2020, 4:36 pm",Abinaya devi,abinaya@socialbeat.in
Great,"19-05-2020, 4:36 pm",Dhivya Ashokkumar,dhivya.ashokkumar@socialbeat.in
Okay,"19-05-2020, 4:36 pm",Shreya Ravi,shreya.ravi@socialbeat.in
Great,"19-05-2020, 4:36 pm",David Appasamy,david@socialbeat.in
Okay,"19-05-2020, 4:37 pm",Amritha Viswanathan,amritha@socialbeat.in
Okay,"19-05-2020, 4:38 pm",Darshana Padam,darshana@socialbeat.in
Great,"19-05-2020, 4:38 pm",Bindhya V C,bindhya@socialbeat.in
Okay,"19-05-2020, 4:38 pm",Naveen Kumar,naveen@socialbeat.in
Okay,"19-05-2020, 4:39 pm",Smitha Bharadwaj,smitha@socialbeat.in
Not Okay,"19-05-2020, 4:41 pm",Amith Shetty,amith@socialbeat.in
Okay,"19-05-2020, 4:42 pm",Aishwarya Ravishankar,aishwarya.ravishankar@socialbeat.in
Not Okay,"19-05-2020, 4:43 pm",Kashmira Pattni,kashmira@socialbeat.in
Great,"19-05-2020, 4:44 pm",Sahitya Mahesh,sahitya@socialbeat.in
Great,"19-05-2020, 4:44 pm",Ajith Kumar Parasuraman,ajith@socialbeat.in
Not Okay,"19-05-2020, 4:49 pm",Asfaan Mohammed,asfaan@socialbeat.in
Not Okay,"19-05-2020, 4:59 pm",Sree Rengavasan R,rengavasan@socialbeat.in
Okay,"19-05-2020, 5:00 pm",Rohit Sonawane,rohitsonawane@socialbeat.in
Okay,"19-05-2020, 5:01 pm",Natasha Mehra,natasha.m@socialbeat.in
Okay,"19-05-2020, 5:03 pm",Avinash Shenoy,avinash@socialbeat.in
Okay,"19-05-2020, 5:06 pm",Aishwarya Shaw,aishwarya.shaw@socialbeat.in
Okay,"19-05-2020, 5:06 pm",Sirajuddin H,sirajuddin@socialbeat.in
Great,"19-05-2020, 5:10 pm",Chandra Shekar,chandra.shekar@socialbeat.in
Okay,"19-05-2020, 5:26 pm",Priyadarshini L,priyadarshini@socialbeat.in
Okay,"19-05-2020, 5:28 pm",Akanksha A,akanksha@socialbeat.in
Okay,"19-05-2020, 5:36 pm",Meghna Parikh,meghnaparikh@socialbeat.in
Okay,"19-05-2020, 5:59 pm",Karthik S Krishnan,karthik.krishnan@socialbeat.in
Okay,"19-05-2020, 5:59 pm",Rakshita Jain,rakshita@socialbeat.in
Okay,"19-05-2020, 6:26 pm",Divya Ram,divya@socialbeat.in
Okay,"19-05-2020, 7:19 pm",Nagendra Perumal,nagendra@socialbeat.in
Okay,"19-05-2020, 11:15 pm",Sandeep Kumar,sandeep@socialbeat.in
Okay,"20-05-2020, 1:41 am",Tejasvi Batria,tejasvi@socialbeat.in
Not Okay,"20-05-2020, 8:47 am",Raja A,raja@socialbeat.in
Great,"20-05-2020, 9:40 am",Kiruthika Kotteeswaran,kiruthika@socialbeat.in
Great,"20-05-2020, 10:11 am",Mahesh Damare,mahesh.damare@socialbeat.in
Okay,"20-05-2020, 10:26 am",Moumita Samanta,moumita.samanta@socialbeat.in
Great,"20-05-2020, 10:27 am",Abhijith Menon,abhijith.menon@socialbeat.in
Okay,"20-05-2020, 11:25 am",Shalini K S,shalini@socialbeat.in
Okay,"20-05-2020, 11:27 am",Harshitha Suresh,harshitha@socialbeat.in
Okay,"20-05-2020, 11:28 am",Aarthi s,aarthi@socialbeat.in
Okay,"20-05-2020, 11:50 am",Sundar R,sundar@socialbeat.in
Okay,"20-05-2020, 12:44 pm",Sreyash Roy,sreyash.roy@socialbeat.in
Okay,"20-05-2020, 12:55 pm",Saismrithi Govindarajan,saismrithi@socialbeat.in
Okay,"20-05-2020, 1:02 pm",Ishita Parekh,ishita@socialbeat.in
Okay,"20-05-2020, 1:42 pm",Srinidhi Maheshwari,srinidhi@socialbeat.in
Great,"20-05-2020, 6:02 pm",Chetan G,chetan.g@socialbeat.in
Not Okay,"20-05-2020, 6:11 pm",Soumi Das,soumi@socialbeat.in
Not Okay,"21-05-2020, 11:43 am",Khushi Daksha,khushi@socialbeat.in
Not Okay,"21-05-2020, 6:44 pm",Roshini M,roshinimuthuraman@socialbeat.in
Okay,"21-05-2020, 7:52 pm",Arputharaj R,arputharaj@socialbeat.in
Great,"22-05-2020, 9:57 am",Antriksh Kashyap,antriksh@socialbeat.in
Okay,"22-05-2020, 11:43 am",Hardik Prithiani,hardik@socialbeat.in
Okay,"26-05-2020, 2:48 pm",Sowmiya shanmuhasundaram,sowmiya@socialbeat.in
Not Okay,"26-05-2020, 9:40 pm",Sukhpreet Kaur,sukhpreet@socialbeat.in
Okay,"27-05-2020, 12:24 pm",Mohamed Rizwan. M,rizwan@socialbeat.in
Okay,"28-05-2020, 9:41 am",Ayesha Rafeeq,ayesha@socialbeat.in
Okay,"29-05-2020, 11:11 am",Shiva Balaswaminathan,shiva@socialbeat.in
Not Okay,"29-05-2020, 12:00 pm",Abhinav Gorthi,abhinav@socialbeat.in
Great,"29-05-2020, 2:44 pm",Purushothaman K,purushothaman@socialbeat.in
Not Okay,"01-06-2020, 1:37 am",Ashok Raja,ashok.raja@socialbeat.in
Okay,"01-06-2020, 7:05 am",Sukhpreet Kaur,sukhpreet@socialbeat.in
Okay,"01-06-2020, 7:32 am",Sirajuddin H,sirajuddin@socialbeat.in
Okay,"01-06-2020, 8:47 am",Sparjan Pati,sparjan.pati@socialbeat.in
Okay,"01-06-2020, 8:47 am",Vivek,vivek@socialbeat.in
Great,"01-06-2020, 9:02 am",Deepsikha Agarwal,deepsikha@socialbeat.in
Okay,"01-06-2020, 9:41 am",Clinton D'silva,clinton.dsilva@socialbeat.in
Okay,"01-06-2020, 9:54 am",Srinidhi Maheshwari,srinidhi@socialbeat.in
Great,"01-06-2020, 10:06 am",Vikas chawla,vikas@socialbeat.in
Okay,"01-06-2020, 10:18 am",Aashik Indukuri,aashik.indukuri@socialbeat.in
Great,"01-06-2020, 10:36 am",Sreekar P S S,sreekar@socialbeat.in
Okay,"01-06-2020, 10:40 am",Haridasan Shanmugam,haridasan@socialbeat.in
Okay,"01-06-2020, 10:41 am",Preethi Shanmugam,preethi@socialbeat.in
Okay,"01-06-2020, 10:42 am",Sandeep Kumar,sandeep@socialbeat.in
Okay,"01-06-2020, 10:44 am",Sudarshan Kailash,sudarshan@socialbeat.in
Not Okay,"01-06-2020, 10:47 am",Raja A,raja@socialbeat.in
Not Okay,"01-06-2020, 11:00 am",Deesha Seth,deesha.seth@socialbeat.in
Great,"01-06-2020, 11:11 am",Divya Babu,divyababu@socialbeat.in
Okay,"01-06-2020, 11:14 am",Adithya Krishnan,adithya@socialbeat.in
Okay,"01-06-2020, 11:14 am",Tejasvi Batria,tejasvi@socialbeat.in
Great,"01-06-2020, 11:15 am",Abhijith Menon,abhijith.menon@socialbeat.in
Great,"01-06-2020, 11:17 am",Arushi Gupta,arushi@socialbeat.in
Okay,"01-06-2020, 11:21 am",Mubena Khaliq,mubena@socialbeat.in
Okay,"01-06-2020, 11:24 am",Moumita Samanta,moumita.samanta@socialbeat.in
Great,"01-06-2020, 11:42 am",Sahitya Mahesh,sahitya@socialbeat.in
Okay,"01-06-2020, 11:48 am",Nevedha Pandurangan,nevedha@socialbeat.in
Okay,"01-06-2020, 11:52 am",Preksha Bokaria,preksha.bokaria@socialbeat.in
Not Okay,"01-06-2020, 11:52 am",Nirupama Venkataraman,nirupama@socialbeat.in
Not Okay,"01-06-2020, 11:52 am",Nirupama Venkataraman,nirupama@socialbeat.in
Okay,"01-06-2020, 11:56 am",Natasha Mehra,natasha.m@socialbeat.in
Okay,"01-06-2020, 12:10 pm",Kashmira Pattni,kashmira@socialbeat.in
Okay,"01-06-2020, 12:11 pm",Siri K,siri@socialbeat.in
Great,"01-06-2020, 12:38 pm",Santhosh Venkatesh,santhosh.venkatesh@socialbeat.in
Okay,"01-06-2020, 12:43 pm",Yash Makhecha,yash.makhecha@socialbeat.in
Okay,"01-06-2020, 12:55 pm",Nagendra Perumal,nagendra@socialbeat.in
Great,"01-06-2020, 12:57 pm",Pradeep Babu,pradeep@socialbeat.in
Okay,"01-06-2020, 1:03 pm",Abhinav Gorthi,abhinav@socialbeat.in
Not Okay,"01-06-2020, 1:07 pm",Amith Shetty,amith@socialbeat.in
Okay,"01-06-2020, 1:37 pm",Khushi Daksha,khushi@socialbeat.in
Great,"01-06-2020, 1:49 pm",Mahesh Damare,mahesh.damare@socialbeat.in
Okay,"01-06-2020, 2:01 pm",Naveen Kumar,naveen@socialbeat.in
Great,"01-06-2020, 3:15 pm",Arju S Moon,arju@socialbeat.in
Okay,"01-06-2020, 3:17 pm",Satvika Rajeev,satvika@socialbeat.in
Okay,"01-06-2020, 4:21 pm",Sathananthan s,sathananthan@socialbeat.in
Okay,"01-06-2020, 5:33 pm",Mitsu Jain,mitsu@socialbeat.in
Great,"01-06-2020, 5:41 pm",Kiruthika Kotteeswaran,kiruthika@socialbeat.in
Okay,"01-06-2020, 6:58 pm",Lavanya U,lavanya@socialbeat.in
Okay,"01-06-2020, 7:08 pm",Vimal Michael,vimal@socialbeat.in
Okay,"01-06-2020, 8:42 pm",Shreya Nagesh,shreya@socialbeat.in
Okay,"02-06-2020, 7:27 am",Priyadarshini L,priyadarshini@socialbeat.in
Great,"02-06-2020, 9:59 am",Naveen Kumar,naveenkumar@socialbeat.in
Great,"02-06-2020, 10:28 am",Divya Ram,divya@socialbeat.in
Okay,"02-06-2020, 10:35 am",Smitha Bharadwaj,smitha@socialbeat.in
Great,"02-06-2020, 11:48 am",Shalini K S,shalini@socialbeat.in
Okay,"02-06-2020, 12:33 pm",Gaurav Kadnurrao,gaurav@socialbeat.in
Great,"02-06-2020, 1:11 pm",Pranav Agarwal,pranav@socialbeat.in
Okay,"02-06-2020, 1:53 pm",Rohit Sonawane,rohitsonawane@socialbeat.in
Okay,"02-06-2020, 2:06 pm",Aishwarya Shaw,aishwarya.shaw@socialbeat.in
Okay,"02-06-2020, 3:59 pm",Purvaja Balakrishnan,purvaja@socialbeat.in
Okay,"02-06-2020, 4:15 pm",Sharanya Venugopal,sharanya@socialbeat.in
Okay,"02-06-2020, 4:54 pm",Kyra de Sousa,kyra@socialbeat.in
Great,"02-06-2020, 5:50 pm",Shivek Kanojia,shivek.kanojia@socialbeat.in
Okay,"02-06-2020, 5:55 pm",Ruthra Moorthy,ruthra.moorthy@socialbeat.in
Okay,"02-06-2020, 5:58 pm",Anjali Rawat,anjali.rawat@socialbeat.in
Great,"02-06-2020, 6:16 pm",Shana Paulose,shana.paulose@socialbeat.in
Okay,"02-06-2020, 7:10 pm",Aishwarya Ravishankar,aishwarya.ravishankar@socialbeat.in
Okay,"02-06-2020, 7:21 pm",Chandra Shekar,chandra.shekar@socialbeat.in
Not Okay,"02-06-2020, 7:43 pm",Rakshika Vasudevan,rakshika.vasudevan@socialbeat.in
Okay,"03-06-2020, 10:22 am",Dhivya Ashokkumar,dhivya.ashokkumar@socialbeat.in
Okay,"03-06-2020, 10:40 am",Ayesha Rafeeq,ayesha@socialbeat.in
Okay,"03-06-2020, 10:41 am",Aarthi s,aarthi@socialbeat.in
Great,"03-06-2020, 10:41 am",Bindhya V C,bindhya@socialbeat.in
Great,"03-06-2020, 11:35 am",Sundar R,sundar@socialbeat.in
Okay,"03-06-2020, 11:39 am",Mukesh R,mukesh@socialbeat.in
Great,"03-06-2020, 11:56 am",Antriksh Kashyap,antriksh@socialbeat.in
Great,"03-06-2020, 12:01 pm",Mahesh kumar,mahesh@socialbeat.in
Okay,"03-06-2020, 12:14 pm",Panisa Shah,panisa@socialbeat.in
Great,"03-06-2020, 12:20 pm",Ajith Kumar Parasuraman,ajith@socialbeat.in
Okay,"03-06-2020, 1:36 pm",Arvind Velayutham,arvindvelayutham@socialbeat.in
Okay,"03-06-2020, 3:47 pm",Sanjana Kothari,sanjana@socialbeat.in
Okay,"04-06-2020, 12:05 am",Nandita Raman,nandita@socialbeat.in
Okay,"04-06-2020, 10:50 am",Antriksh Saxena,antriksh.s@socialbeat.in
Okay,"04-06-2020, 11:10 am",Akanksha A,akanksha@socialbeat.in
Okay,"04-06-2020, 12:00 pm",Harshitha Suresh,harshitha@socialbeat.in
Okay,"04-06-2020, 3:03 pm",Rhea jain,rhea@socialbeat.in
Okay,"04-06-2020, 10:42 pm",Meghana Chandani,meghana@socialbeat.in
Okay,"05-06-2020, 9:07 am",Arunima Singh,arunima@socialbeat.in
Okay,"05-06-2020, 11:02 am",Mirai Kandathil,mirai@socialbeat.in
Okay,"05-06-2020, 11:10 am",Vel Murugan,velmurugan@socialbeat.in
Great,"05-06-2020, 11:57 am",Lalitha shukla,lalitha@socialbeat.in
Okay,"05-06-2020, 2:57 pm",Madhuvanti M,madhuvanti@socialbeat.in
Great,"05-06-2020, 5:06 pm",Pritish Pandey,pritish.pandey@socialbeat.in
Okay,"08-06-2020, 11:48 am",Saismrithi Govindarajan,saismrithi@socialbeat.in
Okay,"08-06-2020, 1:01 pm",Sree Rengavasan R,rengavasan@socialbeat.in
Okay,"09-06-2020, 10:09 am",Shreya Ravi,shreya.ravi@socialbeat.in
Okay,"09-06-2020, 11:53 am",Aishwarya Ashok,aishwarya.ashok@socialbeat.in
Okay,"09-06-2020, 12:28 pm",Sreyash Roy,sreyash.roy@socialbeat.in
Okay,"09-06-2020, 12:42 pm",Hardik Prithiani,hardik@socialbeat.in
Okay,"09-06-2020, 12:43 pm",Hardik Prithiani,hardik@socialbeat.in
Okay,"09-06-2020, 12:47 pm",Hardik Prithiani,hardik@socialbeat.in
Okay,"10-06-2020, 10:24 am",Roshni Chhabria,roshni@socialbeat.in
Okay,"10-06-2020, 3:42 pm",Shrutika Shetty,shrutika@socialbeat.in
Great,"10-06-2020, 4:58 pm",Shilka Edakkara,shilka@socialbeat.in
Okay,"10-06-2020, 5:00 pm",Kanthi S,kanthi@socialbeat.in
Okay,"10-06-2020, 6:11 pm",Rakshita Jain,rakshita@socialbeat.in
Okay,"10-06-2020, 6:22 pm",Druhi Sethi,druhi@socialbeat.in
Okay,"10-06-2020, 10:31 pm",Shiva Balaswaminathan,shiva@socialbeat.in
Okay,"11-06-2020, 4:01 pm",Ananyaa Desikan,ananyaa@socialbeat.in
Okay,"11-06-2020, 6:36 pm",Jayanth Jonathan,jayanth@socialbeat.in
Okay,"11-06-2020, 8:01 pm",Ishita Parekh,ishita@socialbeat.in
Great,"12-06-2020, 8:58 am",Sayantan Rudra,sayantan.rudra@socialbeat.in
Great,"12-06-2020, 10:08 am",Sowmiya shanmuhasundaram,sowmiya@socialbeat.in
Okay,"12-06-2020, 11:29 am",Ashok Raja,ashok.raja@socialbeat.in
Okay,"12-06-2020, 11:51 am",Darshana Padam,darshana@socialbeat.in
Great,"12-06-2020, 5:14 pm",Vivek Patro,vivek.patro@socialbeat.in
Okay,"15-06-2020, 10:15 am",Vaitheeswari Elavazhagan,vaitheeswari@socialbeat.in
Okay,"15-06-2020, 10:43 am",Roshini M,roshinimuthuraman@socialbeat.in
Okay,"15-06-2020, 5:32 pm",Amritha Viswanathan,amritha@socialbeat.in
Okay,"16-06-2020, 12:51 pm",Meghna Parikh,meghnaparikh@socialbeat.in
Okay,"17-06-2020, 12:07 pm",Karthik S Krishnan,karthik.krishnan@socialbeat.in
Okay,"17-06-2020, 2:15 pm",Arifa Rafeeq,arifa.rafeeq@socialbeat.in
Great,"17-06-2020, 3:39 pm",Purushothaman K,purushothaman@socialbeat.in
Okay,"18-06-2020, 10:43 am",Pooja Suresh,pooja@socialbeat.in
Okay,"18-06-2020, 11:12 am",Bhumika Rajkumar,bhumika.rajkumar@socialbeat.in
Great,"18-06-2020, 12:27 pm",Soumi Das,soumi@socialbeat.in