userName,Employee ID,2020-05-01,2020-05-02,2020-05-03,2020-05-04,2020-05-05,2020-05-06,2020-05-07,2020-05-08,2020-05-09,2020-05-10,2020-05-11,2020-05-12,2020-05-13,2020-05-14,2020-05-15,2020-05-16,2020-05-17,2020-05-18,2020-05-19,2020-05-20,2020-05-21,2020-05-22,2020-05-23,2020-05-24,2020-05-25,2020-05-26,2020-05-27,2020-05-28,2020-05-29,2020-05-30,2020-05-31,Joining Date,Exit Date
Vimal Michael,SB0037,P,P,Sunday,S,P,P,P,P,P,Sunday,P,P,P,P,P,P,Sunday,P,P,P,P,P,P,Sunday,P,P,P,P,P,P,Sunday,2015-10-01,
Vikas chawla,NA,P,P,Sunday,P,P,P,P,P,P,Sunday,P,P,P,P,P,P,Sunday,P,P,P,P,P,P,Sunday,P,P,P,P,P,P,Sunday,,Invalid date
Arushi Gupta,SB0084,P,P,Sunday,P,P,P,P,P,P,Sunday,P,P,P,P,P,P,Sunday,P,P,P,P,P,P,Sunday,P,P,P,P,P,P,Sunday,2017-03-23,
Haridasan Shanmugam,SB0028,P,P,Sunday,P,P,HD,P,P,P,Sunday,P,P,P,P,P,P,Sunday,P,P,P,P,P,P,Sunday,P,P,P,P,P,P,Sunday,2015-06-17,
Sirajuddin H,SB0295,P,P,Sunday,P,P,P,P,P,P,Sunday,P,P,P,P,P,P,Sunday,P,P,P,P,P,P,Sunday,P,P,P,P,P,P,Sunday,2019-11-04,
Vel Murugan,SB0003,P,P,Sunday,P,P,P,P,P,P,Sunday,P,P,P,P,P,P,Sunday,P,P,P,P,P,P,Sunday,P,P,P,P,P,P,Sunday,2013-05-01,
Suneil Chawla,NA,P,P,Sunday,P,P,P,P,P,P,Sunday,P,P,P,P,P,P,Sunday,P,P,P,P,P,P,Sunday,P,P,P,P,P,P,Sunday,,Invalid date
Antriksh Kashyap,SB0108,P,P,Sunday,P,P,P,P,P,P,Sunday,P,P,P,P,P,P,Sunday,P,P,P,P,P,P,Sunday,P,P,P,P,P,P,Sunday,2017-08-01,
Rohit Sonawane,NA,P,P,Sunday,P,P,P,P,P,P,Sunday,P,P,P,P,P,P,Sunday,P,P,P,P,P,P,Sunday,P,P,P,P,P,P,Sunday,,Invalid date
Kiruthika Kotteeswaran,SB0307,P,P,Sunday,P,P,S,P,P,P,Sunday,P,P,P,P,P,P,Sunday,P,P,P,P,P,P,Sunday,P,P,P,P,P,P,Sunday,2019-12-11,
Arju S Moon,SB0202,P,P,Sunday,P,P,P,P,P,P,Sunday,P,P,P,P,P,P,Sunday,P,P,P,P,P,P,Sunday,P,P,P,P,P,P,Sunday,2018-11-08,
Sowmiya shanmuhasundaram,SB0168,P,P,Sunday,P,P,S,P,P,P,Sunday,P,P,P,P,P,P,Sunday,P,P,P,P,P,P,Sunday,P,P,P,P,P,P,Sunday,2018-06-11,
Vaitheeswari Elavazhagan,SB0238,P,P,Sunday,P,P,P,P,P,P,Sunday,P,P,P,P,P,P,Sunday,P,P,P,P,P,P,Sunday,P,P,P,P,P,P,Sunday,2019-05-20,
Sree Rengavasan R,SB0269,P,P,Sunday,P,P,P,P,P,P,Sunday,P,P,P,P,P,P,Sunday,P,P,P,P,P,P,Sunday,P,P,P,P,P,P,Sunday,2019-08-19,
Siri K,SB0173,P,P,Sunday,P,P,P,CO,P,P,Sunday,P,P,P,P,P,P,Sunday,P,P,P,P,P,P,Sunday,P,P,P,P,P,P,Sunday,2018-07-16,
Shalini K S,SB0214,P,P,Sunday,P,P,P,P,P,P,Sunday,P,P,P,P,P,P,Sunday,P,P,P,P,P,P,Sunday,P,P,P,P,P,P,Sunday,2018-12-01,
Sandeep Kumar,SB0301,P,P,Sunday,P,P,P,P,P,P,Sunday,P,P,P,P,P,P,Sunday,P,P,P,P,P,P,Sunday,P,P,P,P,P,P,Sunday,2019-12-02,
Mahesh kumar,SB0207,P,P,Sunday,P,P,P,P,P,P,Sunday,P,P,P,P,P,P,Sunday,P,P,P,P,P,P,Sunday,P,P,P,P,P,P,Sunday,2018-12-04,
Amith Shetty,SB0200,P,P,Sunday,P,P,P,P,P,P,Sunday,P,P,P,P,P,P,Sunday,P,P,P,P,P,P,Sunday,P,P,P,P,P,P,Sunday,2018-11-08,
Smitha Bharadwaj,SB0283,P,P,Sunday,P,P,P,P,P,P,Sunday,P,P,P,P,P,P,Sunday,P,P,P,P,P,P,Sunday,P,P,P,P,P,P,Sunday,2019-09-30,
Gautham Nagaraj,SB0070,P,P,Sunday,P,P,P,P,P,P,Sunday,P,P,P,P,P,P,Sunday,P,P,P,P,P,P,Sunday,P,P,P,P,P,P,Sunday,2016-11-21,2020-04-29
Clinton D'silva,SB0325,P,P,Sunday,P,P,P,P,P,P,Sunday,P,P,P,P,P,P,Sunday,P,P,P,P,P,P,Sunday,P,P,P,P,P,P,Sunday,2020-01-16,
Mubena Khaliq,SB0252,P,P,Sunday,P,P,P,P,P,P,Sunday,P,P,P,P,P,P,Sunday,P,P,P,P,P,P,Sunday,P,P,P,P,P,P,Sunday,2019-06-24,
Abhinav Gorthi,SB0302,P,P,Sunday,P,P,P,P,P,P,Sunday,P,P,P,P,P,P,Sunday,P,P,P,P,P,P,Sunday,P,P,P,P,P,P,Sunday,2019-12-02,
Srinidhi Maheshwari,SB0054,P,P,Sunday,P,P,P,P,P,P,Sunday,P,P,P,P,P,P,Sunday,P,P,P,P,P,P,Sunday,P,P,P,P,P,P,Sunday,2016-06-01,
Rhea jain,SB0112,P,P,Sunday,S,P,P,P,P,P,Sunday,P,P,P,P,P,P,Sunday,P,P,P,P,P,P,Sunday,P,P,P,P,P,P,Sunday,2017-09-18,
Naveen Kumar,SB0317,P,P,Sunday,P,P,HD,P,P,P,Sunday,P,P,P,P,P,P,Sunday,P,P,P,P,P,P,Sunday,P,P,P,P,P,P,Sunday,2020-01-02,
Aaditya Khandelwal,SB0261,P,P,Sunday,C,P,P,P,P,P,Sunday,P,P,P,P,P,P,Sunday,P,P,P,P,P,P,Sunday,P,P,P,P,P,P,Sunday,2019-01-21,
Khushi Daksha,SB0258,P,P,Sunday,P,P,P,P,P,P,Sunday,P,P,P,P,P,P,Sunday,P,P,P,P,P,P,Sunday,P,P,P,P,P,P,Sunday,2019-07-01,
Jayanth Jonathan,SB0115,P,P,Sunday,P,P,P,P,P,P,Sunday,P,P,P,P,P,P,Sunday,P,P,P,P,P,P,Sunday,P,P,P,P,P,P,Sunday,2017-10-03,
Nandita Raman,SB0036,P,P,Sunday,P,P,P,P,P,P,Sunday,P,P,P,P,P,P,Sunday,P,P,P,P,P,P,Sunday,P,P,P,P,P,P,Sunday,2015-09-23,
Aarthi s,SB0177,P,P,Sunday,P,P,P,P,P,P,Sunday,P,P,P,P,P,P,Sunday,P,P,P,P,P,P,Sunday,P,P,P,P,P,P,Sunday,2018-07-16,
Nikhil Kumar,SB0217,P,P,Sunday,P,P,P,P,P,P,Sunday,P,P,P,P,P,P,Sunday,P,P,P,P,P,P,Sunday,P,P,P,P,P,P,Sunday,2018-11-12,
Rohitashav Goyal,NA,P,P,Sunday,P,P,P,P,P,P,Sunday,P,P,P,P,P,P,Sunday,P,P,P,P,P,P,Sunday,P,P,P,P,P,P,Sunday,,Invalid date
Pratiksha Sinha,SB0286,P,P,Sunday,P,P,P,P,P,P,Sunday,P,P,P,P,P,P,Sunday,P,P,P,P,P,P,Sunday,P,P,P,P,P,P,Sunday,2019-10-03,
Sathananthan s,SB0262,P,P,Sunday,P,P,P,P,P,P,Sunday,P,P,P,P,P,P,Sunday,P,P,P,P,P,P,Sunday,P,P,P,P,P,P,Sunday,2019-07-11,
Rakshika Vasudevan,SB0319,P,P,Sunday,P,P,P,P,P,P,Sunday,P,P,P,P,P,P,Sunday,P,P,P,P,P,P,Sunday,P,P,P,P,P,P,Sunday,2020-01-02,
Purvaja Balakrishnan,SB0276,P,P,Sunday,P,P,P,P,P,P,Sunday,P,P,P,P,P,P,Sunday,P,P,P,P,P,P,Sunday,P,P,P,P,P,P,Sunday,2019-09-09,
Vivek,SB0042,P,P,Sunday,C,P,P,P,P,P,Sunday,P,P,P,P,P,P,Sunday,P,P,P,P,P,P,Sunday,P,P,P,P,P,P,Sunday,2016-02-15,
Lavanya U,SB0098,P,P,Sunday,P,P,P,P,P,P,Sunday,P,P,P,P,P,P,Sunday,P,P,P,P,P,P,Sunday,P,P,P,P,P,P,Sunday,2017-05-16,
Soumi Das,SB0227,P,P,Sunday,P,P,P,P,P,P,Sunday,P,P,P,P,P,P,Sunday,P,P,P,P,P,P,Sunday,P,P,P,P,P,P,Sunday,2019-03-18,
Vazhmuni G,SB0203,P,P,Sunday,P,P,P,P,P,P,Sunday,P,P,P,P,P,P,Sunday,P,P,P,P,P,P,Sunday,P,P,P,P,P,P,Sunday,2018-11-08,
Hardik Prithiani,NA,P,P,Sunday,C,P,P,P,C,P,Sunday,P,P,P,P,P,P,Sunday,P,P,P,P,P,P,Sunday,P,P,P,P,P,P,Sunday,,Invalid date
Naveen Kumar,SB0313,P,P,Sunday,P,P,P,P,P,P,Sunday,P,P,P,P,P,P,Sunday,P,P,P,P,P,P,Sunday,P,P,P,P,P,P,Sunday,2019-12-14,
Ayesha Rafeeq,SB0078,P,P,Sunday,P,P,P,P,P,P,Sunday,P,P,P,P,P,P,Sunday,P,P,P,P,P,P,Sunday,P,P,P,P,P,P,Sunday,2017-02-06,
Arunima Singh,SB0291,P,P,Sunday,P,P,P,P,C,P,Sunday,P,P,P,P,P,P,Sunday,P,P,P,P,P,P,Sunday,P,P,P,P,P,P,Sunday,2019-11-01,
Srirathna Venkatesh,SB0167,P,P,Sunday,P,P,P,P,P,P,Sunday,P,P,P,P,P,P,Sunday,P,P,P,P,P,P,Sunday,P,P,P,P,P,P,Sunday,2018-06-11,
Shreya Nagesh,SB0174,P,P,Sunday,P,P,P,P,P,P,Sunday,P,P,P,P,P,P,Sunday,P,P,P,P,P,P,Sunday,P,P,P,P,P,P,Sunday,2018-07-16,
Sukhpreet Kaur,SB0321,P,P,Sunday,P,P,P,P,P,P,Sunday,P,P,P,P,P,P,Sunday,P,P,P,P,P,P,Sunday,P,P,P,P,P,P,Sunday,2020-01-06,
Amritha Viswanathan,SB0241,P,P,Sunday,P,P,P,P,P,P,Sunday,P,P,P,P,P,P,Sunday,P,P,P,P,P,P,Sunday,P,P,P,P,P,P,Sunday,2019-06-03,
Natasha Mehra,SB0124,P,P,Sunday,P,P,P,P,P,P,Sunday,P,P,P,P,P,P,Sunday,P,P,P,P,P,P,Sunday,P,P,P,P,P,P,Sunday,2018-01-03,
Shilka Edakkara,SB0185,P,P,Sunday,P,P,P,P,P,P,Sunday,P,P,P,P,P,P,Sunday,P,P,P,P,P,P,Sunday,P,P,P,P,P,P,Sunday,2018-08-27,
Reuben Alex,SB0318,P,P,Sunday,P,P,P,P,P,P,Sunday,P,P,P,P,P,P,Sunday,P,P,P,P,P,P,Sunday,P,P,P,P,P,P,Sunday,2020-01-02,
Karthikeyan D,SB0034,P,P,Sunday,P,P,P,P,P,P,Sunday,P,P,P,P,P,P,Sunday,P,P,P,P,P,P,Sunday,P,P,P,P,P,P,Sunday,2015-09-10,
Aishwarya Ravishankar,SB0306,P,P,Sunday,P,P,P,P,P,P,Sunday,P,P,P,P,P,P,Sunday,P,P,P,P,P,P,Sunday,P,P,P,P,P,P,Sunday,2019-12-10,
Deesha Seth,SB0310,P,P,Sunday,P,P,P,P,P,P,Sunday,P,P,P,P,P,P,Sunday,P,P,P,P,P,P,Sunday,P,P,P,P,P,P,Sunday,2019-12-11,
Priyadarshini L,SB0032,P,P,Sunday,P,P,P,P,P,P,Sunday,P,P,P,P,P,P,Sunday,P,P,P,P,P,P,Sunday,P,P,P,P,P,P,Sunday,2015-08-17,
Aishwarya Ashok,SB0218,P,P,Sunday,S,P,P,P,P,P,Sunday,P,P,P,P,P,P,Sunday,P,P,P,P,P,P,Sunday,P,P,P,P,P,P,Sunday,2019-02-06,
Bhavana Bagrecha,NA,P,P,Sunday,P,P,P,P,P,P,Sunday,P,P,P,P,P,P,Sunday,P,P,P,P,P,P,Sunday,P,P,P,P,P,P,Sunday,,Invalid date
Roshini M,SB0330,P,P,Sunday,P,P,S,P,P,P,Sunday,P,P,P,P,P,P,Sunday,P,P,P,P,P,P,Sunday,P,P,P,P,P,P,Sunday,2020-02-01,
Bhargav Sidagam,SB0225,P,P,Sunday,P,P,P,P,P,P,Sunday,P,P,P,P,P,P,Sunday,P,P,P,P,P,P,Sunday,P,P,P,P,P,P,Sunday,2019-03-08,
Preksha Bokaria,SB0287,P,P,Sunday,P,P,P,P,P,P,Sunday,P,P,P,P,P,P,Sunday,P,P,P,P,P,P,Sunday,P,P,P,P,P,P,Sunday,2019-10-08,
Apoorva Saxena,SB0256,P,P,Sunday,P,S,S,P,P,P,Sunday,P,P,P,P,P,P,Sunday,P,P,P,P,P,P,Sunday,P,P,P,P,P,P,Sunday,2019-07-01,
Akanksha A,SB0220,P,P,Sunday,P,P,P,P,P,P,Sunday,P,P,P,P,P,P,Sunday,P,P,P,P,P,P,Sunday,P,P,P,P,P,P,Sunday,2019-01-27,
Gaurav Kadnurrao,SB0273,P,P,Sunday,CO,P,P,P,P,P,Sunday,P,P,P,P,CO,P,Sunday,P,P,P,P,P,P,Sunday,P,P,P,P,P,P,Sunday,2019-08-27,
Divya Ram,SB0191,P,P,Sunday,P,P,P,P,P,P,Sunday,P,P,P,P,P,P,Sunday,P,P,P,P,P,P,Sunday,P,P,P,P,P,P,Sunday,2018-09-17,
Chandra Shekar,SB0322,P,P,Sunday,P,P,P,P,P,P,Sunday,P,P,P,P,P,P,Sunday,P,P,P,P,P,P,Sunday,P,P,P,P,P,P,Sunday,2020-01-06,
Aishwarya Shaw,SB0188,P,P,Sunday,P,P,P,P,P,P,Sunday,P,P,P,P,P,P,Sunday,P,P,P,P,P,P,Sunday,P,P,P,P,P,P,Sunday,2018-08-27,
Adithya Krishnan,SB0299,P,P,Sunday,P,P,P,P,C,P,Sunday,P,P,P,P,P,P,Sunday,P,P,P,P,P,P,Sunday,P,P,P,P,P,P,Sunday,2019-11-25,
Ishita Parekh,SB0245,P,P,Sunday,P,P,P,P,P,P,Sunday,P,P,P,P,P,P,Sunday,P,P,P,P,P,P,Sunday,P,P,P,P,P,P,Sunday,2019-06-17,
Ananyaa Desikan,SB0195,P,P,Sunday,P,P,P,P,P,P,Sunday,P,P,P,P,P,P,Sunday,P,P,P,P,P,P,Sunday,P,P,P,P,P,P,Sunday,2018-10-11,
Nithin Kumar,SB0102,P,P,Sunday,P,P,P,P,P,P,Sunday,P,P,P,P,P,P,Sunday,P,P,P,P,P,P,Sunday,P,P,P,P,P,P,Sunday,2017-06-05,
Deepsikha Agarwal,SB0305,P,P,Sunday,P,P,S,S,S,P,Sunday,P,P,P,P,P,P,Sunday,P,P,P,P,P,P,Sunday,P,P,P,P,P,P,Sunday,2019-12-10,
Nagendra Perumal,SB0259,P,P,Sunday,P,P,P,P,P,P,Sunday,P,P,P,P,P,P,Sunday,P,P,P,P,P,P,Sunday,P,P,P,P,P,P,Sunday,2019-07-03,
Saismrithi Govindarajan,SB0248,P,P,Sunday,P,P,P,P,P,P,Sunday,P,P,P,P,P,P,Sunday,P,P,P,P,P,P,Sunday,P,P,P,P,P,P,Sunday,2019-06-17,
Divya Babu,SB0293,P,P,Sunday,P,P,P,P,P,P,Sunday,P,P,P,P,P,P,Sunday,P,P,P,P,P,P,Sunday,P,P,P,P,P,P,Sunday,2019-11-01,
Mukesh R,SB0158,P,P,Sunday,P,P,P,P,P,P,Sunday,P,P,P,P,P,P,Sunday,P,P,P,P,P,P,Sunday,P,P,P,P,P,P,Sunday,2018-05-16,
Nirupama Venkataraman,SB0289,P,P,Sunday,P,P,P,P,P,P,Sunday,P,P,P,P,P,P,Sunday,P,P,P,P,P,P,Sunday,P,P,P,P,P,P,Sunday,2019-10-18,
Pranav Agarwal,SB0130,P,P,Sunday,P,P,P,P,P,P,Sunday,P,P,P,P,P,P,Sunday,P,P,P,P,P,P,Sunday,P,P,P,P,P,P,Sunday,2018-01-29,
Rakshita Jain,SB0208,P,P,Sunday,P,P,P,P,P,P,Sunday,P,P,P,P,P,P,Sunday,P,P,P,P,P,P,Sunday,P,P,P,P,P,P,Sunday,2018-12-04,
Lalitha shukla,SB0242,P,P,Sunday,P,P,P,P,P,P,Sunday,P,P,P,P,P,P,Sunday,P,P,P,P,P,P,Sunday,P,P,P,P,P,P,Sunday,2019-06-03,
Druhi Sethi,SB0101,P,P,Sunday,P,P,S,S,P,P,Sunday,P,P,P,P,P,P,Sunday,P,P,P,P,P,P,Sunday,P,P,P,P,P,P,Sunday,2017-06-01,
Pooja Suresh,SB0197,P,P,Sunday,P,P,P,P,P,P,Sunday,P,P,P,P,P,P,Sunday,P,P,P,P,P,P,Sunday,P,P,P,P,P,P,Sunday,2018-10-23,
Mitsu Jain,SB0194,P,P,Sunday,P,P,P,P,P,P,Sunday,P,P,P,P,P,P,Sunday,P,P,P,P,P,P,Sunday,P,P,P,P,P,P,Sunday,2018-10-08,
Shrutika Shetty,SB0279,P,P,Sunday,P,P,P,P,P,P,Sunday,P,P,P,P,P,P,Sunday,P,P,P,P,P,P,Sunday,P,P,P,P,P,P,Sunday,2019-09-09,
Panisa Shah,SB0017,P,P,Sunday,P,P,P,P,P,P,Sunday,P,P,P,P,P,P,Sunday,P,P,P,P,P,P,Sunday,P,P,P,P,P,P,Sunday,2014-09-12,
Parul Chaudhary,SB0228,P,P,Sunday,P,P,P,P,P,P,Sunday,P,P,P,P,P,P,Sunday,P,P,P,P,P,P,Sunday,P,P,P,P,P,P,Sunday,2019-03-18,2020-05-12
Mansi Paun,Temp 33,P,P,Sunday,P,P,P,P,P,P,Sunday,P,P,P,P,P,P,Sunday,P,P,P,P,P,P,Sunday,P,P,P,P,P,P,Sunday,2020-02-17,
Karthik S Krishnan,SB0298,P,P,Sunday,P,P,P,P,P,P,Sunday,P,P,P,P,P,P,Sunday,P,P,P,P,P,P,Sunday,P,P,P,P,P,P,Sunday,2019-11-18,
Kyra de Sousa,SB0139,P,P,Sunday,P,P,P,P,BL,BL,Sunday,BL,BL,BL,BL,BL,P,Sunday,BL,BL,BL,BL,BL,BL,Sunday,BL,BL,BL,BL,BL,P,Sunday,2018-03-19,
Sreyash Roy,SB0271,P,P,Sunday,P,P,P,P,P,P,Sunday,P,P,P,P,P,P,Sunday,P,P,P,P,P,P,Sunday,P,P,P,P,P,P,Sunday,2019-08-26,
Roshni Chhabria,SB0030,P,P,Sunday,P,P,P,P,P,P,Sunday,P,P,P,P,P,P,Sunday,P,P,P,P,P,P,Sunday,P,P,P,P,P,P,Sunday,2015-08-05,
Pradeep Babu,SB0211,P,P,Sunday,P,P,P,P,P,P,Sunday,P,P,P,P,P,P,Sunday,P,P,P,P,P,P,Sunday,P,P,P,P,P,P,Sunday,2018-12-04,
Abinaya devi,SB0324,P,P,Sunday,P,P,P,P,P,P,Sunday,P,P,P,P,P,P,Sunday,P,P,P,P,P,P,Sunday,P,P,P,P,P,P,Sunday,2018-12-19,
Aaratrika Chatterjee,Temp 30,P,P,Sunday,P,P,P,P,P,P,Sunday,P,P,P,P,P,P,Sunday,P,P,P,P,P,P,Sunday,P,P,P,P,P,P,Sunday,2019-12-01,
Shidika U.B.R,SB0201,P,P,Sunday,P,P,P,P,P,P,Sunday,P,P,P,P,P,P,Sunday,P,P,P,P,P,P,Sunday,P,P,P,P,P,P,Sunday,2018-11-08,2020-05-13
Arvind Velayutham,SB0281,P,P,Sunday,P,P,P,P,P,P,Sunday,P,P,P,P,P,P,Sunday,P,P,P,P,P,P,Sunday,P,P,P,P,P,P,Sunday,2019-09-30,
Madhuvanti M,SB0304,P,P,Sunday,P,P,P,P,P,P,Sunday,P,P,P,P,P,P,Sunday,P,P,P,P,P,P,Sunday,P,P,P,P,P,P,Sunday,2019-12-09,
Purushothaman K,SB0009,P,P,Sunday,P,P,P,P,P,P,Sunday,P,P,P,P,P,P,Sunday,P,P,P,P,P,P,Sunday,P,P,P,P,P,P,Sunday,2014-03-13,
Arputharaj R,SB0134,P,P,Sunday,P,P,P,P,P,P,Sunday,P,P,P,P,P,P,Sunday,P,P,P,P,P,P,Sunday,P,P,P,P,P,P,Sunday,2018-02-01,
Antriksh Saxena,SB0129,P,P,Sunday,P,P,P,P,P,P,Sunday,P,P,P,P,P,P,Sunday,P,P,P,P,P,P,Sunday,P,P,P,P,P,P,Sunday,2018-01-25,
Senthamil Selvam,SB0133,P,P,Sunday,P,P,P,P,P,P,Sunday,P,P,P,P,P,P,Sunday,P,P,P,P,P,P,Sunday,P,P,P,P,P,P,Sunday,2018-02-01,
Kashmira Pattni,SB0278,P,P,Sunday,P,P,P,P,P,P,Sunday,P,P,P,P,P,P,Sunday,P,P,P,P,P,P,Sunday,P,P,P,P,P,P,Sunday,2019-09-09,
Shiva Balaswaminathan,SB0303,P,P,Sunday,P,P,P,P,P,P,Sunday,P,P,P,P,P,P,Sunday,P,P,P,P,P,P,Sunday,P,P,P,P,P,P,Sunday,2019-12-09,
Meghna Parikh,NA,P,P,Sunday,P,P,P,P,P,P,Sunday,P,P,P,P,P,P,Sunday,P,P,P,P,P,P,Sunday,P,P,P,P,P,P,Sunday,,Invalid date
Sudarshan Kailash,SB0232,P,P,Sunday,P,P,P,P,P,P,Sunday,P,P,P,P,P,P,Sunday,P,P,P,P,P,P,Sunday,P,P,P,P,P,P,Sunday,2019-04-25,
Preethi Shanmugam,SB0260,P,P,Sunday,P,C,C,P,P,P,Sunday,P,P,P,P,P,P,Sunday,P,P,P,P,P,P,Sunday,P,P,P,P,P,P,Sunday,2019-01-02,
Raja A,SB0231,P,P,Sunday,P,P,P,P,P,P,Sunday,P,P,P,P,P,P,Sunday,P,P,P,P,P,P,Sunday,P,P,P,P,P,P,Sunday,2019-04-24,
Meghana Chandani,SB0081,P,P,Sunday,P,P,P,P,P,P,Sunday,P,P,P,P,P,P,Sunday,P,P,P,P,P,P,Sunday,P,P,P,P,P,P,Sunday,2017-02-20,
Satvika Rajeev,SB0172,P,P,Sunday,P,P,P,P,P,P,Sunday,P,P,P,P,P,P,Sunday,P,P,P,P,P,P,Sunday,P,P,P,P,P,P,Sunday,2018-06-25,
Natasha Daruwala,SB0038,P,P,Sunday,P,S,P,P,P,P,Sunday,P,P,P,P,P,P,Sunday,P,P,P,P,P,P,Sunday,P,P,P,P,P,P,Sunday,2015-11-02,
Sahitya Mahesh,SB0116,P,P,Sunday,P,P,P,P,P,P,Sunday,P,P,P,P,P,P,Sunday,P,P,P,P,P,P,Sunday,P,P,P,P,P,P,Sunday,2017-10-03,
Mirai Kandathil,SB0315,P,P,Sunday,P,P,P,P,P,P,Sunday,P,P,P,P,P,P,Sunday,P,P,P,P,P,P,Sunday,P,P,P,P,P,P,Sunday,2019-12-18,
Tuhina Bapuli,SB0288,P,P,Sunday,P,P,P,P,P,P,Sunday,P,P,P,P,P,P,Sunday,P,P,P,P,P,P,Sunday,P,P,P,P,P,P,Sunday,2019-10-09,
Leave socialbeat,NA,P,P,Sunday,P,P,P,P,P,P,Sunday,P,P,P,P,P,P,Sunday,P,P,P,P,P,P,Sunday,P,P,P,P,P,P,Sunday,,Invalid date
Nevedha Pandurangan,SB0240,P,P,Sunday,P,P,P,P,P,P,Sunday,P,P,P,P,P,P,Sunday,P,P,P,P,P,P,Sunday,P,P,P,P,P,P,Sunday,2019-06-03,
Ashok Raja,SB0314,P,P,Sunday,P,P,P,P,P,P,Sunday,P,P,P,P,P,P,Sunday,P,P,P,P,P,P,Sunday,P,P,P,P,P,P,Sunday,2019-12-16,
Darshana Padam,SB0247,P,P,Sunday,P,P,P,P,P,P,Sunday,P,P,P,P,P,P,Sunday,P,P,P,P,P,P,Sunday,P,P,P,P,P,P,Sunday,2019-06-17,
Veena Mahbubani,SB0114,P,P,Sunday,P,P,P,P,P,P,Sunday,P,P,P,P,P,P,Sunday,P,P,P,P,P,P,Sunday,P,P,P,P,P,P,Sunday,2017-09-20,
Ajith Kumar Parasuraman,SB0290,P,P,Sunday,P,P,P,P,P,P,Sunday,P,P,P,P,P,P,Sunday,P,P,P,P,P,P,Sunday,P,P,P,P,P,P,Sunday,2019-10-30,
Shashank,SB0148,P,P,Sunday,P,P,P,P,P,P,Sunday,P,P,P,P,P,P,Sunday,P,P,P,P,P,P,Sunday,P,P,P,P,P,P,Sunday,2018-04-25,2020-03-31
Sparjan Pati,SB0270,P,P,Sunday,P,P,P,P,P,P,Sunday,P,P,P,P,P,P,Sunday,P,P,P,P,P,P,Sunday,P,P,P,P,P,P,Sunday,2019-08-26,
Unnati Shah,NA,P,P,Sunday,P,P,P,P,P,P,Sunday,P,P,P,P,P,P,Sunday,P,P,P,P,P,P,Sunday,P,P,P,P,P,P,Sunday,,Invalid date
Asfaan Mohammed,SB0275,P,P,Sunday,P,P,P,P,P,P,Sunday,P,P,P,P,P,P,Sunday,P,P,P,P,P,P,Sunday,P,P,P,P,P,P,Sunday,2019-09-09,
Avinash Shenoy,SB0280,P,P,Sunday,P,P,P,P,P,P,Sunday,P,P,P,P,P,P,Sunday,P,P,P,P,P,P,Sunday,P,P,P,P,P,P,Sunday,2019-09-12,
Kanthi S,SB0052,P,P,Sunday,P,S,P,P,P,P,Sunday,P,P,P,P,P,P,Sunday,P,P,P,P,P,P,Sunday,P,P,P,P,P,P,Sunday,2016-05-07,
Sanjana Kothari,SB0192,P,P,Sunday,P,P,P,P,P,P,Sunday,P,P,P,P,P,P,Sunday,P,P,P,P,P,P,Sunday,P,P,P,P,P,P,Sunday,2018-09-17,
Anchal Daga,NA,P,P,Sunday,P,P,P,P,P,P,Sunday,P,P,P,P,P,P,Sunday,P,P,P,P,P,P,Sunday,P,P,P,P,P,P,Sunday,2020-05-27,Invalid date
Sundar R,SB0064,P,P,Sunday,P,P,P,P,P,P,Sunday,P,P,P,P,P,P,Sunday,P,P,P,P,P,P,Sunday,P,P,P,P,P,P,Sunday,2016-07-28,
Lakshmi Priya,SB0326,P,P,Sunday,P,P,P,P,P,P,Sunday,P,P,P,P,P,P,Sunday,P,P,P,P,P,P,Sunday,P,P,P,P,P,P,Sunday,2020-01-17,2020-04-03
Kavya J,Temp 32,P,P,Sunday,P,P,P,P,P,P,Sunday,P,P,P,P,P,P,Sunday,P,P,P,P,P,P,Sunday,P,P,P,P,P,P,Sunday,2020-01-27,
Sharath Kumar,SB0294,P,P,Sunday,P,P,P,P,P,P,Sunday,P,P,P,P,P,P,Sunday,P,P,P,P,P,P,Sunday,P,P,P,P,P,P,Sunday,2019-11-01,
Dhivya Ashokkumar,SB0312,P,P,Sunday,P,P,P,P,P,P,Sunday,P,P,P,P,P,P,Sunday,P,P,P,P,P,P,Sunday,P,P,P,P,P,P,Sunday,2019-12-11,
Sharanya Venugopal,SB0221,P,P,Sunday,P,P,P,P,P,P,Sunday,P,P,P,P,P,P,Sunday,P,P,P,P,P,P,Sunday,P,P,P,P,P,P,Sunday,2019-02-14,
Meera Shankar,SB0292,P,P,Sunday,P,P,P,P,P,P,Sunday,P,P,P,P,P,P,Sunday,P,P,P,P,P,P,Sunday,P,P,P,P,P,P,Sunday,2019-11-01,
Siva subramanya Swamy.n,SB0316,P,P,Sunday,P,P,P,P,P,P,Sunday,P,P,P,P,P,P,Sunday,P,P,P,P,P,P,Sunday,P,P,P,P,P,P,Sunday,2019-12-18,
Bindhya V C,SB0254,P,P,Sunday,P,P,P,P,P,P,Sunday,P,P,P,P,P,P,Sunday,P,P,P,P,P,P,Sunday,P,P,P,P,P,P,Sunday,2019-07-01,
Sreekar P S S,SB0176,P,P,Sunday,P,P,P,P,P,P,Sunday,P,P,P,P,P,P,Sunday,P,P,P,P,P,P,Sunday,P,P,P,P,P,P,Sunday,2018-07-16,
Chetan G,SB0329,P,P,Sunday,P,P,S,P,P,P,Sunday,P,P,P,P,P,P,Sunday,P,P,P,P,P,P,Sunday,P,P,P,P,P,P,Sunday,2020-01-27,
Ranjith Kumar,SB0140,P,P,Sunday,P,P,P,P,P,P,Sunday,P,P,P,P,P,P,Sunday,P,P,P,P,P,P,Sunday,P,P,P,P,P,P,Sunday,2018-03-26,
Mohamed Rizwan. M,SB0136,P,P,Sunday,P,P,P,P,P,P,Sunday,P,P,P,P,P,P,Sunday,P,P,P,P,P,P,Sunday,P,P,P,P,P,P,Sunday,2018-03-05,
Harini Chandrasekaran,NA,P,P,Sunday,P,P,P,P,P,P,Sunday,P,P,P,P,P,P,Sunday,P,P,P,P,P,P,Sunday,P,P,P,P,P,P,Sunday,,Invalid date
Harshitha Suresh,SB0250,P,P,Sunday,P,P,P,P,P,P,Sunday,P,P,P,P,P,P,Sunday,P,P,P,P,P,P,Sunday,P,P,P,P,P,P,Sunday,2019-06-17,
Shreya Ravi,SB0332,P,P,Sunday,P,P,P,P,P,P,Sunday,P,P,P,P,P,P,Sunday,P,P,P,P,P,P,Sunday,P,P,P,P,P,P,Sunday,2020-02-20,
Parshwa Sarvaiya,SB0229,P,P,Sunday,P,P,P,P,P,P,Sunday,P,P,P,P,P,P,Sunday,P,P,P,P,P,P,Sunday,P,P,P,P,P,P,Sunday,2019-03-25,
Mahesh Damare,SB0333,P,P,Sunday,P,P,P,P,P,P,Sunday,P,P,P,P,P,P,Sunday,P,P,P,P,P,P,Sunday,P,P,P,P,P,P,Sunday,2020-02-24,
Sayantan Rudra,SB0335,P,P,Sunday,P,P,P,P,P,P,Sunday,P,P,P,P,P,P,Sunday,P,P,P,P,P,P,Sunday,P,P,P,P,P,P,Sunday,2020-03-09,
Vivek Patro,SB0334,P,P,Sunday,P,P,P,P,P,P,Sunday,P,P,P,P,P,P,Sunday,P,P,P,P,P,P,Sunday,P,P,P,P,P,P,Sunday,2020-03-09,
Aashik Indukuri,SB0339,P,P,Sunday,P,P,P,P,P,P,Sunday,P,P,P,P,P,P,Sunday,P,P,P,P,P,P,Sunday,P,P,P,P,P,P,Sunday,2020-03-13,
Santhosh Venkatesh,SB0336,P,P,Sunday,P,S,P,P,P,P,Sunday,P,P,P,P,P,P,Sunday,P,P,P,P,P,P,Sunday,P,P,P,P,P,P,Sunday,2020-03-09,
Sahlin Ahamed,SB0327,P,P,Sunday,P,P,P,P,P,P,Sunday,P,P,P,P,P,P,Sunday,P,P,P,P,P,P,Sunday,P,P,P,P,P,P,Sunday,2020-01-22,
Abhijith Menon,SB0340,P,P,Sunday,P,P,P,P,P,P,Sunday,P,P,P,P,P,P,Sunday,P,P,P,P,P,P,Sunday,P,P,P,P,P,P,Sunday,2020-03-16,
Bhumika Rajkumar,SB0341,P,P,Sunday,P,P,P,P,P,P,Sunday,P,P,P,P,P,P,Sunday,P,P,P,P,P,P,Sunday,P,P,P,P,P,P,Sunday,2020-03-16,
Yash Makhecha,SB0328,P,P,Sunday,P,P,P,P,P,P,Sunday,P,P,P,P,P,P,Sunday,P,P,P,P,P,P,Sunday,P,P,P,P,P,P,Sunday,2020-01-27,
Moumita Samanta,NA,P,P,Sunday,P,P,P,S,P,P,Sunday,P,P,P,P,P,P,Sunday,P,P,P,P,P,P,Sunday,P,P,P,P,P,P,Sunday,,Invalid date
Nikhil Prabhavalkar,NA,P,P,Sunday,P,P,P,P,P,P,Sunday,P,P,P,P,P,P,Sunday,P,P,P,P,P,P,Sunday,P,P,P,P,P,P,Sunday,NA,Invalid date
David Appasamy,NA,P,P,Sunday,P,P,P,P,P,P,Sunday,P,P,P,P,P,P,Sunday,P,P,P,P,P,P,Sunday,P,P,P,P,P,P,Sunday,,Invalid date
Tejasvi Batria,NA,P,P,Sunday,P,P,P,P,P,P,Sunday,P,P,P,P,P,P,Sunday,P,P,P,P,P,P,Sunday,P,P,P,P,P,P,Sunday,2018-11-08,
Somya Aggarwal,SB0342,P,P,Sunday,P,P,P,P,P,P,Sunday,P,P,P,P,P,P,Sunday,P,P,P,P,P,P,Sunday,P,P,P,P,P,P,Sunday,2020-05-04,